{
  "project_info": {
    "project_number": "324158988149",
    "firebase_url": "https://naval-vms.firebaseio.com",
    "project_id": "naval-vms",
    "storage_bucket": "naval-vms.appspot.com"
  },
  "client": [
    {
      "client_info": {
        "mobilesdk_app_id": "1:324158988149:android:5be7ed3338edca2c",
        "android_client_info": {
          "package_name": "com.navyvehicle.navyvehicle"
        }
      },
      "oauth_client": [
        {
          "client_id": "324158988149-nr8ftni8l9sr831jesse5276h8l3gqep.apps.googleusercontent.com",
          "client_type": 1,
          "android_info": {
            "package_name": "com.navyvehicle.navyvehicle",
            "certificate_hash": "15abe34315f273c57fdc81e553cc5548ad26d33a"
          }
        },
        {
          "client_id": "324158988149-h059tiocaimpthcdhs6rr3kvdv86duh8.apps.googleusercontent.com",
          "client_type": 3
        }
      ],
      "api_key": [
        {
          "current_key": "AIzaSyAbnagGq-LOmRmuCkEL8dpIfwFD9BVo8BI"
        }
      ],
      "services": {
        "appinvite_service": {
          "other_platform_oauth_client": [
            {
              "client_id": "324158988149-h059tiocaimpthcdhs6rr3kvdv86duh8.apps.googleusercontent.com",
              "client_type": 3
            }
          ]
        }
      }
    }
  ],
  "configuration_version": "1"
}